…
#### 2.6 Find the mean `conc` and sum of the `Dose` received by each test subject.

``` r
Theoph |>
  group_by(conc, Dose) |> 
  summarize(mean_conc = mean(conc), sum_dose = sum(Dose))
```

    # A tibble: 129 × 4
    # Groups:   conc [115]
        conc  Dose mean_conc sum_dose
       <dbl> <dbl>     <dbl>    <dbl>
     1  0     3.1       0        3.1 
     2  0     4         0        4   
     3  0     4.4       0        8.8 
     4  0     4.53      0        9.06
     5  0     4.92      0        4.92
     6  0     5.3       0        5.3 
     7  0     5.86      0        5.86
     8  0.15  4.95      0.15     4.95
     9  0.24  5.5       0.24     5.5 
    10  0.74  4.02      0.74     4.02
    # ℹ 119 more rows
…
